EESchema Schematic File Version 4
EELAYER 30 0
EELAYER END
$Descr USLetter 11000 8500
encoding utf-8
Sheet 1 1
Title ""
Date ""
Rev ""
Comp ""
Comment1 ""
Comment2 ""
Comment3 ""
Comment4 ""
$EndDescr
$Comp
L Connector:Conn_01x02_Female J2
U 1 1 5E30C131
P 4125 4400
F 0 "J2" H 4017 4075 50  0000 C CNN
F 1 "LED String" H 4017 4166 50  0000 C CNN
F 2 "" H 4125 4400 50  0001 C CNN
F 3 "~" H 4125 4400 50  0001 C CNN
	1    4125 4400
	-1   0    0    1   
$EndComp
$Comp
L power:+3V3 #PWR05
U 1 1 5E30CBB1
P 6575 3175
F 0 "#PWR05" H 6575 3025 50  0001 C CNN
F 1 "+3V3" H 6590 3348 50  0000 C CNN
F 2 "" H 6575 3175 50  0001 C CNN
F 3 "" H 6575 3175 50  0001 C CNN
	1    6575 3175
	1    0    0    -1  
$EndComp
$Comp
L power:GND #PWR04
U 1 1 5E30D4C6
P 5825 5050
F 0 "#PWR04" H 5825 4800 50  0001 C CNN
F 1 "GND" H 5830 4877 50  0000 C CNN
F 2 "" H 5825 5050 50  0001 C CNN
F 3 "" H 5825 5050 50  0001 C CNN
	1    5825 5050
	1    0    0    -1  
$EndComp
$Comp
L Device:R R1
U 1 1 5E30D935
P 4925 4850
F 0 "R1" H 4855 4804 50  0000 R CNN
F 1 "100" H 4855 4895 50  0000 R CNN
F 2 "" V 4855 4850 50  0001 C CNN
F 3 "~" H 4925 4850 50  0001 C CNN
	1    4925 4850
	1    0    0    1   
$EndComp
$Comp
L Transistor_FET:2N7000 Q1
U 1 1 5E30DD7C
P 4600 4600
F 0 "Q1" H 4804 4646 50  0000 L CNN
F 1 "2N7000" H 4804 4555 50  0000 L CNN
F 2 "Package_TO_SOT_THT:TO-92_Inline" H 4800 4525 50  0001 L CIN
F 3 "https://www.fairchildsemi.com/datasheets/2N/2N7000.pdf" H 4600 4600 50  0001 L CNN
	1    4600 4600
	-1   0    0    -1  
$EndComp
$Comp
L Connector:Conn_01x01_Female J1
U 1 1 5E30F24F
P 4125 3750
F 0 "J1" H 4017 3525 50  0000 C CNN
F 1 "Touch Sensor" H 4017 3616 50  0000 C CNN
F 2 "" H 4125 3750 50  0001 C CNN
F 3 "~" H 4125 3750 50  0001 C CNN
	1    4125 3750
	-1   0    0    1   
$EndComp
Wire Wire Line
	5825 4800 5825 5050
Wire Wire Line
	6375 3400 6575 3400
Wire Wire Line
	6575 3400 6575 3175
Wire Wire Line
	5325 3750 4325 3750
$Comp
L power:GND #PWR03
U 1 1 5E3484A7
P 4925 5050
F 0 "#PWR03" H 4925 4800 50  0001 C CNN
F 1 "GND" H 4930 4877 50  0000 C CNN
F 2 "" H 4925 5050 50  0001 C CNN
F 3 "" H 4925 5050 50  0001 C CNN
	1    4925 5050
	-1   0    0    -1  
$EndComp
Wire Wire Line
	4925 5000 4925 5050
Wire Wire Line
	4925 4700 4925 4600
Wire Wire Line
	4925 4600 4800 4600
$Comp
L power:+3V3 #PWR01
U 1 1 5E349022
P 4450 4125
F 0 "#PWR01" H 4450 3975 50  0001 C CNN
F 1 "+3V3" H 4465 4298 50  0000 C CNN
F 2 "" H 4450 4125 50  0001 C CNN
F 3 "" H 4450 4125 50  0001 C CNN
	1    4450 4125
	-1   0    0    -1  
$EndComp
Wire Wire Line
	4325 4300 4450 4300
Wire Wire Line
	4450 4300 4450 4125
Wire Wire Line
	4325 4400 4500 4400
$Comp
L power:GND #PWR02
U 1 1 5E34B802
P 4500 5050
F 0 "#PWR02" H 4500 4800 50  0001 C CNN
F 1 "GND" H 4505 4877 50  0000 C CNN
F 2 "" H 4500 5050 50  0001 C CNN
F 3 "" H 4500 5050 50  0001 C CNN
	1    4500 5050
	-1   0    0    -1  
$EndComp
Wire Wire Line
	4500 5050 4500 4800
Wire Wire Line
	5325 4600 4925 4600
Connection ~ 4925 4600
$Comp
L love_lantern:Huzzah32Feather U1
U 1 1 5E33E301
P 5775 3250
F 0 "U1" H 5850 3565 50  0000 C CNN
F 1 "Huzzah32Feather" H 5850 3474 50  0000 C CNN
F 2 "" H 5775 3250 50  0001 C CNN
F 3 "" H 5775 3250 50  0001 C CNN
	1    5775 3250
	1    0    0    -1  
$EndComp
NoConn ~ 5325 3250
NoConn ~ 5325 3350
NoConn ~ 5325 3450
NoConn ~ 5325 3550
NoConn ~ 5325 3650
NoConn ~ 5325 3900
NoConn ~ 5325 4000
NoConn ~ 5325 4100
NoConn ~ 5325 4200
NoConn ~ 5325 4300
NoConn ~ 5325 4400
NoConn ~ 5325 4500
NoConn ~ 6375 4600
NoConn ~ 6375 4500
NoConn ~ 6375 4350
NoConn ~ 6375 4250
NoConn ~ 6375 4100
NoConn ~ 6375 4000
NoConn ~ 6375 3900
NoConn ~ 6375 3700
NoConn ~ 6375 3600
NoConn ~ 6375 3500
NoConn ~ 6375 3250
$EndSCHEMATC
